%YAML 1.1
%TAG !u! tag:unity3d.com,2011:
--- !u!1001 &3148223379801769005
PrefabInstance:
  m_ObjectHideFlags: 0
  serializedVersion: 2
  m_Modification:
    m_TransformParent: {fileID: 0}
    m_Modifications:
    - target: {fileID: 1702020868325331704, guid: 34c065fae192bad419190230bd91d4b5, type: 3}
      propertyPath: m_Size.x
      value: 1
      objectReference: {fileID: 0}
    - target: {fileID: 1702020868325331704, guid: 34c065fae192bad419190230bd91d4b5, type: 3}
      propertyPath: m_Size.y
      value: 1
      objectReference: {fileID: 0}
    - target: {fileID: 1702020868325331704, guid: 34c065fae192bad419190230bd91d4b5, type: 3}
      propertyPath: m_Sprite
      value: 
      objectReference: {fileID: 8545524853153195037, guid: bd8ce4905bad3a1f79710f9d47daf810, type: 3}
    - target: {fileID: 1702020868325331704, guid: 34c065fae192bad419190230bd91d4b5, type: 3}
      propertyPath: m_WasSpriteAssigned
      value: 1
      objectReference: {fileID: 0}
    - target: {fileID: 5110985490557018027, guid: 34c065fae192bad419190230bd91d4b5, type: 3}
      propertyPath: m_RootOrder
      value: 0
      objectReference: {fileID: 0}
    - target: {fileID: 5110985490557018027, guid: 34c065fae192bad419190230bd91d4b5, type: 3}
      propertyPath: m_LocalEulerAnglesHint.x
      value: 0
      objectReference: {fileID: 0}
    - target: {fileID: 5110985490557018027, guid: 34c065fae192bad419190230bd91d4b5, type: 3}
      propertyPath: m_LocalEulerAnglesHint.y
      value: 0
      objectReference: {fileID: 0}
    - target: {fileID: 5110985490557018027, guid: 34c065fae192bad419190230bd91d4b5, type: 3}
      propertyPath: m_LocalEulerAnglesHint.z
      value: 90
      objectReference: {fileID: 0}
    - target: {fileID: 5584635727506305748, guid: 34c065fae192bad419190230bd91d4b5, type: 3}
      propertyPath: damage
      value: 10
      objectReference: {fileID: 0}
    - target: {fileID: 5584635727506305748, guid: 34c065fae192bad419190230bd91d4b5, type: 3}
      propertyPath: armorDamage
      value: 8
      objectReference: {fileID: 0}
    - target: {fileID: 5584635727506305748, guid: 34c065fae192bad419190230bd91d4b5, type: 3}
      propertyPath: impactEffectPrefab
      value: 
      objectReference: {fileID: 517382238724063873, guid: d11a4cf4e9bf0ec14a2af11fbfa2f52a, type: 3}
    - target: {fileID: 6316017826098513635, guid: 34c065fae192bad419190230bd91d4b5, type: 3}
      propertyPath: m_Name
      value: AssaultRifleBullet
      objectReference: {fileID: 0}
    m_RemovedComponents: []
  m_SourcePrefab: {fileID: 100100000, guid: 34c065fae192bad419190230bd91d4b5, type: 3}
