%YAML 1.1
%TAG !u! tag:unity3d.com,2011:
--- !u!1001 &6097555688166979158
PrefabInstance:
  m_ObjectHideFlags: 0
  serializedVersion: 2
  m_Modification:
    m_TransformParent: {fileID: 0}
    m_Modifications:
    - target: {fileID: 432607445116904437, guid: fed24d2f08b0f6a48b1e793f360795b8, type: 3}
      propertyPath: hitPoints
      value: 1
      objectReference: {fileID: 0}
    - target: {fileID: 432607445116904437, guid: fed24d2f08b0f6a48b1e793f360795b8, type: 3}
      propertyPath: properties
      value: 
      objectReference: {fileID: 11400000, guid: 7c1a9a5b18cee8f26b97d14d37ae8ee4, type: 2}
    - target: {fileID: 432607445116904437, guid: fed24d2f08b0f6a48b1e793f360795b8, type: 3}
      propertyPath: destructionStatesBody.Array.size
      value: 1
      objectReference: {fileID: 0}
    - target: {fileID: 432607445116904437, guid: fed24d2f08b0f6a48b1e793f360795b8, type: 3}
      propertyPath: destructionStatesBody.Array.data[0]
      value: 
      objectReference: {fileID: 1443186886, guid: 7904316701c6d4d46b7c3670dde06291, type: 3}
    - target: {fileID: 432607445116904437, guid: fed24d2f08b0f6a48b1e793f360795b8, type: 3}
      propertyPath: destructionStatesBody.Array.data[1]
      value: 
      objectReference: {fileID: -894243410, guid: 7904316701c6d4d46b7c3670dde06291, type: 3}
    - target: {fileID: 6577898960399029253, guid: fed24d2f08b0f6a48b1e793f360795b8, type: 3}
      propertyPath: m_IsActive
      value: 0
      objectReference: {fileID: 0}
    - target: {fileID: 7320238725279263067, guid: fed24d2f08b0f6a48b1e793f360795b8, type: 3}
      propertyPath: m_Parameters.widthCurve.m_Curve.Array.data[0].time
      value: 0
      objectReference: {fileID: 0}
    - target: {fileID: 7320238725279263067, guid: fed24d2f08b0f6a48b1e793f360795b8, type: 3}
      propertyPath: m_Parameters.widthCurve.m_Curve.Array.data[0].value
      value: 0.25000003
      objectReference: {fileID: 0}
    - target: {fileID: 7356900322027396071, guid: fed24d2f08b0f6a48b1e793f360795b8, type: 3}
      propertyPath: m_Sprite
      value: 
      objectReference: {fileID: 1443186886, guid: 7904316701c6d4d46b7c3670dde06291, type: 3}
    - target: {fileID: 7356900322027396071, guid: fed24d2f08b0f6a48b1e793f360795b8, type: 3}
      propertyPath: m_WasSpriteAssigned
      value: 1
      objectReference: {fileID: 0}
    - target: {fileID: 7442463784555041026, guid: fed24d2f08b0f6a48b1e793f360795b8, type: 3}
      propertyPath: m_Sprite
      value: 
      objectReference: {fileID: 1443186886, guid: 7904316701c6d4d46b7c3670dde06291, type: 3}
    - target: {fileID: 7442463784555041026, guid: fed24d2f08b0f6a48b1e793f360795b8, type: 3}
      propertyPath: m_WasSpriteAssigned
      value: 1
      objectReference: {fileID: 0}
    - target: {fileID: 8772025710139090057, guid: fed24d2f08b0f6a48b1e793f360795b8, type: 3}
      propertyPath: m_Name
      value: AsnorSoldierArmorPlateTail
      objectReference: {fileID: 0}
    - target: {fileID: 8772025710139090059, guid: fed24d2f08b0f6a48b1e793f360795b8, type: 3}
      propertyPath: m_RootOrder
      value: 0
      objectReference: {fileID: 0}
    - target: {fileID: 8772025710139090059, guid: fed24d2f08b0f6a48b1e793f360795b8, type: 3}
      propertyPath: m_LocalScale.x
      value: 1
      objectReference: {fileID: 0}
    - target: {fileID: 8772025710139090059, guid: fed24d2f08b0f6a48b1e793f360795b8, type: 3}
      propertyPath: m_LocalScale.y
      value: 1
      objectReference: {fileID: 0}
    - target: {fileID: 8772025710139090059, guid: fed24d2f08b0f6a48b1e793f360795b8, type: 3}
      propertyPath: m_LocalPosition.x
      value: 0
      objectReference: {fileID: 0}
    - target: {fileID: 8772025710139090059, guid: fed24d2f08b0f6a48b1e793f360795b8, type: 3}
      propertyPath: m_LocalPosition.y
      value: 0
      objectReference: {fileID: 0}
    - target: {fileID: 8772025710139090059, guid: fed24d2f08b0f6a48b1e793f360795b8, type: 3}
      propertyPath: m_LocalPosition.z
      value: 0
      objectReference: {fileID: 0}
    - target: {fileID: 8772025710139090059, guid: fed24d2f08b0f6a48b1e793f360795b8, type: 3}
      propertyPath: m_LocalRotation.w
      value: 1
      objectReference: {fileID: 0}
    - target: {fileID: 8772025710139090059, guid: fed24d2f08b0f6a48b1e793f360795b8, type: 3}
      propertyPath: m_LocalRotation.x
      value: 0
      objectReference: {fileID: 0}
    - target: {fileID: 8772025710139090059, guid: fed24d2f08b0f6a48b1e793f360795b8, type: 3}
      propertyPath: m_LocalRotation.y
      value: 0
      objectReference: {fileID: 0}
    - target: {fileID: 8772025710139090059, guid: fed24d2f08b0f6a48b1e793f360795b8, type: 3}
      propertyPath: m_LocalRotation.z
      value: 0
      objectReference: {fileID: 0}
    - target: {fileID: 8772025710139090059, guid: fed24d2f08b0f6a48b1e793f360795b8, type: 3}
      propertyPath: m_LocalEulerAnglesHint.x
      value: 0
      objectReference: {fileID: 0}
    - target: {fileID: 8772025710139090059, guid: fed24d2f08b0f6a48b1e793f360795b8, type: 3}
      propertyPath: m_LocalEulerAnglesHint.y
      value: 0
      objectReference: {fileID: 0}
    - target: {fileID: 8772025710139090059, guid: fed24d2f08b0f6a48b1e793f360795b8, type: 3}
      propertyPath: m_LocalEulerAnglesHint.z
      value: 0
      objectReference: {fileID: 0}
    m_RemovedComponents: []
  m_SourcePrefab: {fileID: 100100000, guid: fed24d2f08b0f6a48b1e793f360795b8, type: 3}
--- !u!61 &3252338351091864259 stripped
BoxCollider2D:
  m_CorrespondingSourceObject: {fileID: 8772025710139090069, guid: fed24d2f08b0f6a48b1e793f360795b8, type: 3}
  m_PrefabInstance: {fileID: 6097555688166979158}
  m_PrefabAsset: {fileID: 0}
--- !u!1 &3252338351091864287 stripped
GameObject:
  m_CorrespondingSourceObject: {fileID: 8772025710139090057, guid: fed24d2f08b0f6a48b1e793f360795b8, type: 3}
  m_PrefabInstance: {fileID: 6097555688166979158}
  m_PrefabAsset: {fileID: 0}
--- !u!114 &789943202830865459
MonoBehaviour:
  m_ObjectHideFlags: 0
  m_CorrespondingSourceObject: {fileID: 0}
  m_PrefabInstance: {fileID: 0}
  m_PrefabAsset: {fileID: 0}
  m_GameObject: {fileID: 3252338351091864287}
  m_Enabled: 1
  m_EditorHideFlags: 0
  m_Script: {fileID: 11500000, guid: e4e7de098f228c477bca1aef348bfd94, type: 3}
  m_Name: 
  m_EditorClassIdentifier: 
  collider2d: {fileID: 3252338351091864259}
  originParentCollider: {fileID: 0}
