%YAML 1.1
%TAG !u! tag:unity3d.com,2011:
--- !u!1001 &462868251386672223
PrefabInstance:
  m_ObjectHideFlags: 0
  serializedVersion: 2
  m_Modification:
    m_TransformParent: {fileID: 0}
    m_Modifications:
    - target: {fileID: 432607445116904437, guid: fed24d2f08b0f6a48b1e793f360795b8, type: 3}
      propertyPath: throwDamage
      value: 7
      objectReference: {fileID: 0}
    - target: {fileID: 432607445116904437, guid: fed24d2f08b0f6a48b1e793f360795b8, type: 3}
      propertyPath: destructionStatesBody.Array.size
      value: 2
      objectReference: {fileID: 0}
    - target: {fileID: 432607445116904437, guid: fed24d2f08b0f6a48b1e793f360795b8, type: 3}
      propertyPath: destructionStatesShadow.Array.size
      value: 2
      objectReference: {fileID: 0}
    - target: {fileID: 432607445116904437, guid: fed24d2f08b0f6a48b1e793f360795b8, type: 3}
      propertyPath: destructionStatesBody.Array.data[0]
      value: 
      objectReference: {fileID: -8538317064939084722, guid: de3876e9998a0194c8ba07186cd4b8b6, type: 3}
    - target: {fileID: 432607445116904437, guid: fed24d2f08b0f6a48b1e793f360795b8, type: 3}
      propertyPath: destructionStatesBody.Array.data[1]
      value: 
      objectReference: {fileID: -8658430072392437073, guid: de3876e9998a0194c8ba07186cd4b8b6, type: 3}
    - target: {fileID: 432607445116904437, guid: fed24d2f08b0f6a48b1e793f360795b8, type: 3}
      propertyPath: destructionStatesHighlight.Array.size
      value: 2
      objectReference: {fileID: 0}
    - target: {fileID: 432607445116904437, guid: fed24d2f08b0f6a48b1e793f360795b8, type: 3}
      propertyPath: destructionStatesShadow.Array.data[0]
      value: 
      objectReference: {fileID: -702898327376644023, guid: de3876e9998a0194c8ba07186cd4b8b6, type: 3}
    - target: {fileID: 432607445116904437, guid: fed24d2f08b0f6a48b1e793f360795b8, type: 3}
      propertyPath: destructionStatesShadow.Array.data[1]
      value: 
      objectReference: {fileID: -2647166056898976909, guid: de3876e9998a0194c8ba07186cd4b8b6, type: 3}
    - target: {fileID: 432607445116904437, guid: fed24d2f08b0f6a48b1e793f360795b8, type: 3}
      propertyPath: destructionStatesHighlight.Array.data[0]
      value: 
      objectReference: {fileID: 7820431177956043229, guid: de3876e9998a0194c8ba07186cd4b8b6, type: 3}
    - target: {fileID: 432607445116904437, guid: fed24d2f08b0f6a48b1e793f360795b8, type: 3}
      propertyPath: destructionStatesHighlight.Array.data[1]
      value: 
      objectReference: {fileID: -4398999587688842856, guid: de3876e9998a0194c8ba07186cd4b8b6, type: 3}
    - target: {fileID: 2082656072181694009, guid: fed24d2f08b0f6a48b1e793f360795b8, type: 3}
      propertyPath: m_IsActive
      value: 0
      objectReference: {fileID: 0}
    - target: {fileID: 7356900322027396071, guid: fed24d2f08b0f6a48b1e793f360795b8, type: 3}
      propertyPath: m_Sprite
      value: 
      objectReference: {fileID: -702898327376644023, guid: de3876e9998a0194c8ba07186cd4b8b6, type: 3}
    - target: {fileID: 7356900322027396071, guid: fed24d2f08b0f6a48b1e793f360795b8, type: 3}
      propertyPath: m_WasSpriteAssigned
      value: 1
      objectReference: {fileID: 0}
    - target: {fileID: 7442463784555041026, guid: fed24d2f08b0f6a48b1e793f360795b8, type: 3}
      propertyPath: m_Sprite
      value: 
      objectReference: {fileID: -8538317064939084722, guid: de3876e9998a0194c8ba07186cd4b8b6, type: 3}
    - target: {fileID: 7442463784555041026, guid: fed24d2f08b0f6a48b1e793f360795b8, type: 3}
      propertyPath: m_WasSpriteAssigned
      value: 1
      objectReference: {fileID: 0}
    - target: {fileID: 8772025710139090057, guid: fed24d2f08b0f6a48b1e793f360795b8, type: 3}
      propertyPath: m_Name
      value: Kitchen_Microwave
      objectReference: {fileID: 0}
    - target: {fileID: 8772025710139090059, guid: fed24d2f08b0f6a48b1e793f360795b8, type: 3}
      propertyPath: m_RootOrder
      value: 0
      objectReference: {fileID: 0}
    - target: {fileID: 8772025710139090059, guid: fed24d2f08b0f6a48b1e793f360795b8, type: 3}
      propertyPath: m_LocalScale.x
      value: 0.5
      objectReference: {fileID: 0}
    - target: {fileID: 8772025710139090059, guid: fed24d2f08b0f6a48b1e793f360795b8, type: 3}
      propertyPath: m_LocalScale.y
      value: 0.5
      objectReference: {fileID: 0}
    - target: {fileID: 8772025710139090059, guid: fed24d2f08b0f6a48b1e793f360795b8, type: 3}
      propertyPath: m_LocalPosition.x
      value: 0
      objectReference: {fileID: 0}
    - target: {fileID: 8772025710139090059, guid: fed24d2f08b0f6a48b1e793f360795b8, type: 3}
      propertyPath: m_LocalPosition.y
      value: 0
      objectReference: {fileID: 0}
    - target: {fileID: 8772025710139090059, guid: fed24d2f08b0f6a48b1e793f360795b8, type: 3}
      propertyPath: m_LocalPosition.z
      value: 0
      objectReference: {fileID: 0}
    - target: {fileID: 8772025710139090059, guid: fed24d2f08b0f6a48b1e793f360795b8, type: 3}
      propertyPath: m_LocalRotation.w
      value: 1
      objectReference: {fileID: 0}
    - target: {fileID: 8772025710139090059, guid: fed24d2f08b0f6a48b1e793f360795b8, type: 3}
      propertyPath: m_LocalRotation.x
      value: 0
      objectReference: {fileID: 0}
    - target: {fileID: 8772025710139090059, guid: fed24d2f08b0f6a48b1e793f360795b8, type: 3}
      propertyPath: m_LocalRotation.y
      value: 0
      objectReference: {fileID: 0}
    - target: {fileID: 8772025710139090059, guid: fed24d2f08b0f6a48b1e793f360795b8, type: 3}
      propertyPath: m_LocalRotation.z
      value: 0
      objectReference: {fileID: 0}
    - target: {fileID: 8772025710139090059, guid: fed24d2f08b0f6a48b1e793f360795b8, type: 3}
      propertyPath: m_LocalEulerAnglesHint.x
      value: 0
      objectReference: {fileID: 0}
    - target: {fileID: 8772025710139090059, guid: fed24d2f08b0f6a48b1e793f360795b8, type: 3}
      propertyPath: m_LocalEulerAnglesHint.y
      value: 0
      objectReference: {fileID: 0}
    - target: {fileID: 8772025710139090059, guid: fed24d2f08b0f6a48b1e793f360795b8, type: 3}
      propertyPath: m_LocalEulerAnglesHint.z
      value: 0
      objectReference: {fileID: 0}
    - target: {fileID: 9110386980792710066, guid: fed24d2f08b0f6a48b1e793f360795b8, type: 3}
      propertyPath: m_Sprite
      value: 
      objectReference: {fileID: 7820431177956043229, guid: de3876e9998a0194c8ba07186cd4b8b6, type: 3}
    m_RemovedComponents: []
  m_SourcePrefab: {fileID: 100100000, guid: fed24d2f08b0f6a48b1e793f360795b8, type: 3}
