%YAML 1.1
%TAG !u! tag:unity3d.com,2011:
--- !u!1001 &1243165150529446911
PrefabInstance:
  m_ObjectHideFlags: 0
  serializedVersion: 2
  m_Modification:
    m_TransformParent: {fileID: 0}
    m_Modifications:
    - target: {fileID: 723260174347132261, guid: 503257289b3ce0015902a59567868cda, type: 3}
      propertyPath: m_RootOrder
      value: 0
      objectReference: {fileID: 0}
    - target: {fileID: 723260174347132261, guid: 503257289b3ce0015902a59567868cda, type: 3}
      propertyPath: m_LocalEulerAnglesHint.x
      value: 0
      objectReference: {fileID: 0}
    - target: {fileID: 723260174347132261, guid: 503257289b3ce0015902a59567868cda, type: 3}
      propertyPath: m_LocalEulerAnglesHint.y
      value: 0
      objectReference: {fileID: 0}
    - target: {fileID: 723260174347132261, guid: 503257289b3ce0015902a59567868cda, type: 3}
      propertyPath: m_LocalEulerAnglesHint.z
      value: 0
      objectReference: {fileID: 0}
    - target: {fileID: 3129552805318754017, guid: 503257289b3ce0015902a59567868cda, type: 3}
      propertyPath: m_Radius
      value: 0.75
      objectReference: {fileID: 0}
    - target: {fileID: 3423273069152801416, guid: 503257289b3ce0015902a59567868cda, type: 3}
      propertyPath: m_Name
      value: AmmoDrop
      objectReference: {fileID: 0}
    - target: {fileID: 5704338992940991667, guid: 503257289b3ce0015902a59567868cda, type: 3}
      propertyPath: m_Sprite
      value: 
      objectReference: {fileID: 21300000, guid: 4ea0a2db6a360a8cfa3d95372915cf99, type: 3}
    - target: {fileID: 5704338992940991667, guid: 503257289b3ce0015902a59567868cda, type: 3}
      propertyPath: m_WasSpriteAssigned
      value: 1
      objectReference: {fileID: 0}
    m_RemovedComponents: []
  m_SourcePrefab: {fileID: 100100000, guid: 503257289b3ce0015902a59567868cda, type: 3}
--- !u!1 &4522023758016311671 stripped
GameObject:
  m_CorrespondingSourceObject: {fileID: 3423273069152801416, guid: 503257289b3ce0015902a59567868cda, type: 3}
  m_PrefabInstance: {fileID: 1243165150529446911}
  m_PrefabAsset: {fileID: 0}
--- !u!114 &9198389141311094416
MonoBehaviour:
  m_ObjectHideFlags: 0
  m_CorrespondingSourceObject: {fileID: 0}
  m_PrefabInstance: {fileID: 0}
  m_PrefabAsset: {fileID: 0}
  m_GameObject: {fileID: 4522023758016311671}
  m_Enabled: 1
  m_EditorHideFlags: 0
  m_Script: {fileID: 11500000, guid: ba7df023c9825603cb9ec8c64033f7dd, type: 3}
  m_Name: 
  m_EditorClassIdentifier: 
  pickupSound:
    Guid:
      Data1: -653086958
      Data2: 1340807937
      Data3: -401123653
      Data4: -893442550
    Path: event:/PlayerActions/AmmoDropPickup
  ammoAmount: 1
