%YAML 1.1
%TAG !u! tag:unity3d.com,2011:
--- !u!1001 &1927934687998005532
PrefabInstance:
  m_ObjectHideFlags: 0
  serializedVersion: 2
  m_Modification:
    m_TransformParent: {fileID: 0}
    m_Modifications:
    - target: {fileID: 277592588291699525, guid: 43c8cb3e057b7db468ef51f0bf141115, type: 3}
      propertyPath: destructionStates.Array.size
      value: 4
      objectReference: {fileID: 0}
    - target: {fileID: 277592588291699525, guid: 43c8cb3e057b7db468ef51f0bf141115, type: 3}
      propertyPath: destructionStates.Array.data[1]
      value: 
      objectReference: {fileID: 6346842608644890634, guid: 3158e62f356050e4eb1e6ac6d3151ea5, type: 3}
    - target: {fileID: 277592588291699525, guid: 43c8cb3e057b7db468ef51f0bf141115, type: 3}
      propertyPath: destructionStates.Array.data[2]
      value: 
      objectReference: {fileID: -4322332460193387211, guid: 3158e62f356050e4eb1e6ac6d3151ea5, type: 3}
    - target: {fileID: 277592588291699525, guid: 43c8cb3e057b7db468ef51f0bf141115, type: 3}
      propertyPath: destructionStates.Array.data[3]
      value: 
      objectReference: {fileID: -1945234857599087062, guid: 3158e62f356050e4eb1e6ac6d3151ea5, type: 3}
    - target: {fileID: 277592588291699525, guid: 43c8cb3e057b7db468ef51f0bf141115, type: 3}
      propertyPath: destructionStatesBody.Array.size
      value: 5
      objectReference: {fileID: 0}
    - target: {fileID: 277592588291699525, guid: 43c8cb3e057b7db468ef51f0bf141115, type: 3}
      propertyPath: destructionStatesShadow.Array.size
      value: 5
      objectReference: {fileID: 0}
    - target: {fileID: 277592588291699525, guid: 43c8cb3e057b7db468ef51f0bf141115, type: 3}
      propertyPath: destructionStatesBody.Array.data[0]
      value: 
      objectReference: {fileID: -4549233301708952626, guid: a4a21f19313bdb247b3fcef9898dd1a0, type: 3}
    - target: {fileID: 277592588291699525, guid: 43c8cb3e057b7db468ef51f0bf141115, type: 3}
      propertyPath: destructionStatesBody.Array.data[1]
      value: 
      objectReference: {fileID: 5070985460498109741, guid: a4a21f19313bdb247b3fcef9898dd1a0, type: 3}
    - target: {fileID: 277592588291699525, guid: 43c8cb3e057b7db468ef51f0bf141115, type: 3}
      propertyPath: destructionStatesBody.Array.data[2]
      value: 
      objectReference: {fileID: 7379215671614607019, guid: a4a21f19313bdb247b3fcef9898dd1a0, type: 3}
    - target: {fileID: 277592588291699525, guid: 43c8cb3e057b7db468ef51f0bf141115, type: 3}
      propertyPath: destructionStatesBody.Array.data[3]
      value: 
      objectReference: {fileID: 1005896793701304059, guid: a4a21f19313bdb247b3fcef9898dd1a0, type: 3}
    - target: {fileID: 277592588291699525, guid: 43c8cb3e057b7db468ef51f0bf141115, type: 3}
      propertyPath: destructionStatesBody.Array.data[4]
      value: 
      objectReference: {fileID: 7172824613519792524, guid: a4a21f19313bdb247b3fcef9898dd1a0, type: 3}
    - target: {fileID: 277592588291699525, guid: 43c8cb3e057b7db468ef51f0bf141115, type: 3}
      propertyPath: destructionStatesHighlight.Array.size
      value: 5
      objectReference: {fileID: 0}
    - target: {fileID: 277592588291699525, guid: 43c8cb3e057b7db468ef51f0bf141115, type: 3}
      propertyPath: destructionStatesShadow.Array.data[0]
      value: 
      objectReference: {fileID: -7581363875677166569, guid: a4a21f19313bdb247b3fcef9898dd1a0, type: 3}
    - target: {fileID: 277592588291699525, guid: 43c8cb3e057b7db468ef51f0bf141115, type: 3}
      propertyPath: destructionStatesShadow.Array.data[1]
      value: 
      objectReference: {fileID: -2234530495932496648, guid: a4a21f19313bdb247b3fcef9898dd1a0, type: 3}
    - target: {fileID: 277592588291699525, guid: 43c8cb3e057b7db468ef51f0bf141115, type: 3}
      propertyPath: destructionStatesShadow.Array.data[2]
      value: 
      objectReference: {fileID: -3683999291976733916, guid: a4a21f19313bdb247b3fcef9898dd1a0, type: 3}
    - target: {fileID: 277592588291699525, guid: 43c8cb3e057b7db468ef51f0bf141115, type: 3}
      propertyPath: destructionStatesShadow.Array.data[3]
      value: 
      objectReference: {fileID: 1725784515941087858, guid: a4a21f19313bdb247b3fcef9898dd1a0, type: 3}
    - target: {fileID: 277592588291699525, guid: 43c8cb3e057b7db468ef51f0bf141115, type: 3}
      propertyPath: destructionStatesShadow.Array.data[4]
      value: 
      objectReference: {fileID: -219038746332120932, guid: a4a21f19313bdb247b3fcef9898dd1a0, type: 3}
    - target: {fileID: 277592588291699525, guid: 43c8cb3e057b7db468ef51f0bf141115, type: 3}
      propertyPath: destructionStatesHighlight.Array.data[0]
      value: 
      objectReference: {fileID: -5333333157323871325, guid: a4a21f19313bdb247b3fcef9898dd1a0, type: 3}
    - target: {fileID: 277592588291699525, guid: 43c8cb3e057b7db468ef51f0bf141115, type: 3}
      propertyPath: destructionStatesHighlight.Array.data[1]
      value: 
      objectReference: {fileID: -3755977970886050887, guid: a4a21f19313bdb247b3fcef9898dd1a0, type: 3}
    - target: {fileID: 277592588291699525, guid: 43c8cb3e057b7db468ef51f0bf141115, type: 3}
      propertyPath: destructionStatesHighlight.Array.data[2]
      value: 
      objectReference: {fileID: 4532273376180919620, guid: a4a21f19313bdb247b3fcef9898dd1a0, type: 3}
    - target: {fileID: 277592588291699525, guid: 43c8cb3e057b7db468ef51f0bf141115, type: 3}
      propertyPath: destructionStatesHighlight.Array.data[3]
      value: 
      objectReference: {fileID: 8162304118013429281, guid: a4a21f19313bdb247b3fcef9898dd1a0, type: 3}
    - target: {fileID: 277592588291699525, guid: 43c8cb3e057b7db468ef51f0bf141115, type: 3}
      propertyPath: destructionStatesHighlight.Array.data[4]
      value: 
      objectReference: {fileID: 8531980313295368807, guid: a4a21f19313bdb247b3fcef9898dd1a0, type: 3}
    - target: {fileID: 1818836844414676617, guid: 43c8cb3e057b7db468ef51f0bf141115, type: 3}
      propertyPath: m_IsActive
      value: 0
      objectReference: {fileID: 0}
    - target: {fileID: 3373099046543610737, guid: 43c8cb3e057b7db468ef51f0bf141115, type: 3}
      propertyPath: m_IsActive
      value: 1
      objectReference: {fileID: 0}
    - target: {fileID: 6815000187681326261, guid: 43c8cb3e057b7db468ef51f0bf141115, type: 3}
      propertyPath: m_IsActive
      value: 0
      objectReference: {fileID: 0}
    - target: {fileID: 7102787604480082354, guid: 43c8cb3e057b7db468ef51f0bf141115, type: 3}
      propertyPath: m_Sprite
      value: 
      objectReference: {fileID: -4549233301708952626, guid: a4a21f19313bdb247b3fcef9898dd1a0, type: 3}
    - target: {fileID: 7102787604480082354, guid: 43c8cb3e057b7db468ef51f0bf141115, type: 3}
      propertyPath: m_WasSpriteAssigned
      value: 1
      objectReference: {fileID: 0}
    - target: {fileID: 7188359690843048791, guid: 43c8cb3e057b7db468ef51f0bf141115, type: 3}
      propertyPath: m_Sprite
      value: 
      objectReference: {fileID: -7581363875677166569, guid: a4a21f19313bdb247b3fcef9898dd1a0, type: 3}
    - target: {fileID: 7188359690843048791, guid: 43c8cb3e057b7db468ef51f0bf141115, type: 3}
      propertyPath: m_WasSpriteAssigned
      value: 1
      objectReference: {fileID: 0}
    - target: {fileID: 8913822543773147906, guid: 43c8cb3e057b7db468ef51f0bf141115, type: 3}
      propertyPath: m_Sprite
      value: 
      objectReference: {fileID: -5333333157323871325, guid: a4a21f19313bdb247b3fcef9898dd1a0, type: 3}
    - target: {fileID: 8964032672400061477, guid: 43c8cb3e057b7db468ef51f0bf141115, type: 3}
      propertyPath: m_Size.x
      value: 1.0875834
      objectReference: {fileID: 0}
    - target: {fileID: 8964032672400061477, guid: 43c8cb3e057b7db468ef51f0bf141115, type: 3}
      propertyPath: m_Size.y
      value: 1.0747035
      objectReference: {fileID: 0}
    - target: {fileID: 8964032672400061477, guid: 43c8cb3e057b7db468ef51f0bf141115, type: 3}
      propertyPath: m_Offset.x
      value: 0.000000059604645
      objectReference: {fileID: 0}
    - target: {fileID: 8964032672400061477, guid: 43c8cb3e057b7db468ef51f0bf141115, type: 3}
      propertyPath: m_Offset.y
      value: 0.00386405
      objectReference: {fileID: 0}
    - target: {fileID: 8964032672400061497, guid: 43c8cb3e057b7db468ef51f0bf141115, type: 3}
      propertyPath: m_Name
      value: Kitchen_Sink
      objectReference: {fileID: 0}
    - target: {fileID: 8964032672400061497, guid: 43c8cb3e057b7db468ef51f0bf141115, type: 3}
      propertyPath: m_IsActive
      value: 1
      objectReference: {fileID: 0}
    - target: {fileID: 8964032672400061499, guid: 43c8cb3e057b7db468ef51f0bf141115, type: 3}
      propertyPath: m_RootOrder
      value: 0
      objectReference: {fileID: 0}
    - target: {fileID: 8964032672400061499, guid: 43c8cb3e057b7db468ef51f0bf141115, type: 3}
      propertyPath: m_LocalPosition.x
      value: 0
      objectReference: {fileID: 0}
    - target: {fileID: 8964032672400061499, guid: 43c8cb3e057b7db468ef51f0bf141115, type: 3}
      propertyPath: m_LocalPosition.y
      value: 0
      objectReference: {fileID: 0}
    - target: {fileID: 8964032672400061499, guid: 43c8cb3e057b7db468ef51f0bf141115, type: 3}
      propertyPath: m_LocalPosition.z
      value: 0
      objectReference: {fileID: 0}
    - target: {fileID: 8964032672400061499, guid: 43c8cb3e057b7db468ef51f0bf141115, type: 3}
      propertyPath: m_LocalRotation.w
      value: 1
      objectReference: {fileID: 0}
    - target: {fileID: 8964032672400061499, guid: 43c8cb3e057b7db468ef51f0bf141115, type: 3}
      propertyPath: m_LocalRotation.x
      value: 0
      objectReference: {fileID: 0}
    - target: {fileID: 8964032672400061499, guid: 43c8cb3e057b7db468ef51f0bf141115, type: 3}
      propertyPath: m_LocalRotation.y
      value: 0
      objectReference: {fileID: 0}
    - target: {fileID: 8964032672400061499, guid: 43c8cb3e057b7db468ef51f0bf141115, type: 3}
      propertyPath: m_LocalRotation.z
      value: 0
      objectReference: {fileID: 0}
    - target: {fileID: 8964032672400061499, guid: 43c8cb3e057b7db468ef51f0bf141115, type: 3}
      propertyPath: m_LocalEulerAnglesHint.x
      value: 0
      objectReference: {fileID: 0}
    - target: {fileID: 8964032672400061499, guid: 43c8cb3e057b7db468ef51f0bf141115, type: 3}
      propertyPath: m_LocalEulerAnglesHint.y
      value: 0
      objectReference: {fileID: 0}
    - target: {fileID: 8964032672400061499, guid: 43c8cb3e057b7db468ef51f0bf141115, type: 3}
      propertyPath: m_LocalEulerAnglesHint.z
      value: 0
      objectReference: {fileID: 0}
    m_RemovedComponents: []
  m_SourcePrefab: {fileID: 100100000, guid: 43c8cb3e057b7db468ef51f0bf141115, type: 3}
