%YAML 1.1
%TAG !u! tag:unity3d.com,2011:
--- !u!114 &11400000
MonoBehaviour:
  m_ObjectHideFlags: 0
  m_CorrespondingSourceObject: {fileID: 0}
  m_PrefabInstance: {fileID: 0}
  m_PrefabAsset: {fileID: 0}
  m_GameObject: {fileID: 0}
  m_Enabled: 1
  m_EditorHideFlags: 0
  m_Script: {fileID: 11500000, guid: c65fe5d352ce7dc42b03b0c8005c7350, type: 3}
  m_Name: AsnorGruntProperties
  m_EditorClassIdentifier: 
  preEquipedGun: {fileID: 3543224532704922982, guid: e134feae2280f512d99bfc1b113f2fdb, type: 3}
  assaultRifleHandsPrefab: {fileID: 346326024536634334, guid: bc727479046f2ecb0a997b80ac600b64, type: 3}
  shotGunHandsPrefab: {fileID: 0}
  sniperRifleHandsPrefab: {fileID: 0}
  movementSpeed: 2.5
  initAmmo: 999999
  maxAmmo: 999999
  meleeRange: 1.5
  startingShootRange: 3.8
  leashShootRange: 4.2
  maxEngageRange: 7
  meleeAttackSound:
    Guid:
      Data1: -217469713
      Data2: 1318102814
      Data3: -860592506
      Data4: -1102335982
    Path: event:/Asnor/SoldierMeleeAttack
  meleeAttackHitSound:
    Guid:
      Data1: -210898959
      Data2: 1311245536
      Data3: 90364813
      Data4: 72804253
    Path: event:/Asnor/SoldierMeleeAttackHit
  meleeAttackDamage: 10
  meleeAttackForce: 100000
  meleeAttackWindupTime: 0.5
  meleeAttackRecoveryTime: 0.5
  meleeAttackCooldown: 2
  meleeEffectPrefab: {fileID: 4813558662929404438, guid: cdf52a706e7ce2d9282a5c8136e4b5bd, type: 3}
  maxHitPoints: 30
  maxArmor: 30
  armorRegenerationDelay: 1
  armorRegenerationPerSecond: 2
  gunLoseProbability: 0.666
  deathMeleeSound:
    Guid:
      Data1: -1942790846
      Data2: 1277740125
      Data3: 433217434
      Data4: -1563277767
    Path: event:/Asnor/SoliderDeathMelee
  deathMeleeTime: 2
