%YAML 1.1
%TAG !u! tag:unity3d.com,2011:
--- !u!1001 &7383668039099772335
PrefabInstance:
  m_ObjectHideFlags: 0
  serializedVersion: 2
  m_Modification:
    m_TransformParent: {fileID: 0}
    m_Modifications:
    - target: {fileID: 432607445116904437, guid: fed24d2f08b0f6a48b1e793f360795b8, type: 3}
      propertyPath: destructionStatesBody.Array.size
      value: 2
      objectReference: {fileID: 0}
    - target: {fileID: 432607445116904437, guid: fed24d2f08b0f6a48b1e793f360795b8, type: 3}
      propertyPath: destructionStatesShadow.Array.size
      value: 2
      objectReference: {fileID: 0}
    - target: {fileID: 432607445116904437, guid: fed24d2f08b0f6a48b1e793f360795b8, type: 3}
      propertyPath: destructionStatesBody.Array.data[0]
      value: 
      objectReference: {fileID: -654584525065267344, guid: a3f10d9dfe11c7c43bd4662b211ccbec, type: 3}
    - target: {fileID: 432607445116904437, guid: fed24d2f08b0f6a48b1e793f360795b8, type: 3}
      propertyPath: destructionStatesBody.Array.data[1]
      value: 
      objectReference: {fileID: 8256406880114656793, guid: a3f10d9dfe11c7c43bd4662b211ccbec, type: 3}
    - target: {fileID: 432607445116904437, guid: fed24d2f08b0f6a48b1e793f360795b8, type: 3}
      propertyPath: destructionStatesHighlight.Array.size
      value: 2
      objectReference: {fileID: 0}
    - target: {fileID: 432607445116904437, guid: fed24d2f08b0f6a48b1e793f360795b8, type: 3}
      propertyPath: destructionStatesShadow.Array.data[0]
      value: 
      objectReference: {fileID: -2712150146380524875, guid: a3f10d9dfe11c7c43bd4662b211ccbec, type: 3}
    - target: {fileID: 432607445116904437, guid: fed24d2f08b0f6a48b1e793f360795b8, type: 3}
      propertyPath: destructionStatesShadow.Array.data[1]
      value: 
      objectReference: {fileID: 8472812240389771314, guid: a3f10d9dfe11c7c43bd4662b211ccbec, type: 3}
    - target: {fileID: 432607445116904437, guid: fed24d2f08b0f6a48b1e793f360795b8, type: 3}
      propertyPath: destructionStatesHighlight.Array.data[0]
      value: 
      objectReference: {fileID: -7861271801161266825, guid: a3f10d9dfe11c7c43bd4662b211ccbec, type: 3}
    - target: {fileID: 432607445116904437, guid: fed24d2f08b0f6a48b1e793f360795b8, type: 3}
      propertyPath: destructionStatesHighlight.Array.data[1]
      value: 
      objectReference: {fileID: 9208621718582026252, guid: a3f10d9dfe11c7c43bd4662b211ccbec, type: 3}
    - target: {fileID: 2082656072181694009, guid: fed24d2f08b0f6a48b1e793f360795b8, type: 3}
      propertyPath: m_IsActive
      value: 0
      objectReference: {fileID: 0}
    - target: {fileID: 4142671818085932292, guid: fed24d2f08b0f6a48b1e793f360795b8, type: 3}
      propertyPath: m_LocalScale.x
      value: 1
      objectReference: {fileID: 0}
    - target: {fileID: 4142671818085932292, guid: fed24d2f08b0f6a48b1e793f360795b8, type: 3}
      propertyPath: m_LocalScale.y
      value: 1
      objectReference: {fileID: 0}
    - target: {fileID: 4142671818085932292, guid: fed24d2f08b0f6a48b1e793f360795b8, type: 3}
      propertyPath: m_LocalPosition.x
      value: 0
      objectReference: {fileID: 0}
    - target: {fileID: 4142671818085932292, guid: fed24d2f08b0f6a48b1e793f360795b8, type: 3}
      propertyPath: m_LocalPosition.y
      value: 0
      objectReference: {fileID: 0}
    - target: {fileID: 6577898960399029253, guid: fed24d2f08b0f6a48b1e793f360795b8, type: 3}
      propertyPath: m_IsActive
      value: 0
      objectReference: {fileID: 0}
    - target: {fileID: 7356900322027396071, guid: fed24d2f08b0f6a48b1e793f360795b8, type: 3}
      propertyPath: m_Sprite
      value: 
      objectReference: {fileID: -2712150146380524875, guid: a3f10d9dfe11c7c43bd4662b211ccbec, type: 3}
    - target: {fileID: 7356900322027396071, guid: fed24d2f08b0f6a48b1e793f360795b8, type: 3}
      propertyPath: m_WasSpriteAssigned
      value: 1
      objectReference: {fileID: 0}
    - target: {fileID: 7442463784555041026, guid: fed24d2f08b0f6a48b1e793f360795b8, type: 3}
      propertyPath: m_Sprite
      value: 
      objectReference: {fileID: -654584525065267344, guid: a3f10d9dfe11c7c43bd4662b211ccbec, type: 3}
    - target: {fileID: 7442463784555041026, guid: fed24d2f08b0f6a48b1e793f360795b8, type: 3}
      propertyPath: m_WasSpriteAssigned
      value: 1
      objectReference: {fileID: 0}
    - target: {fileID: 8772025710139090057, guid: fed24d2f08b0f6a48b1e793f360795b8, type: 3}
      propertyPath: m_Name
      value: Kitchen_Chair
      objectReference: {fileID: 0}
    - target: {fileID: 8772025710139090057, guid: fed24d2f08b0f6a48b1e793f360795b8, type: 3}
      propertyPath: m_IsActive
      value: 1
      objectReference: {fileID: 0}
    - target: {fileID: 8772025710139090059, guid: fed24d2f08b0f6a48b1e793f360795b8, type: 3}
      propertyPath: m_RootOrder
      value: 0
      objectReference: {fileID: 0}
    - target: {fileID: 8772025710139090059, guid: fed24d2f08b0f6a48b1e793f360795b8, type: 3}
      propertyPath: m_LocalPosition.x
      value: 0
      objectReference: {fileID: 0}
    - target: {fileID: 8772025710139090059, guid: fed24d2f08b0f6a48b1e793f360795b8, type: 3}
      propertyPath: m_LocalPosition.y
      value: 0
      objectReference: {fileID: 0}
    - target: {fileID: 8772025710139090059, guid: fed24d2f08b0f6a48b1e793f360795b8, type: 3}
      propertyPath: m_LocalPosition.z
      value: 0
      objectReference: {fileID: 0}
    - target: {fileID: 8772025710139090059, guid: fed24d2f08b0f6a48b1e793f360795b8, type: 3}
      propertyPath: m_LocalRotation.w
      value: 1
      objectReference: {fileID: 0}
    - target: {fileID: 8772025710139090059, guid: fed24d2f08b0f6a48b1e793f360795b8, type: 3}
      propertyPath: m_LocalRotation.x
      value: 0
      objectReference: {fileID: 0}
    - target: {fileID: 8772025710139090059, guid: fed24d2f08b0f6a48b1e793f360795b8, type: 3}
      propertyPath: m_LocalRotation.y
      value: 0
      objectReference: {fileID: 0}
    - target: {fileID: 8772025710139090059, guid: fed24d2f08b0f6a48b1e793f360795b8, type: 3}
      propertyPath: m_LocalRotation.z
      value: 0
      objectReference: {fileID: 0}
    - target: {fileID: 8772025710139090059, guid: fed24d2f08b0f6a48b1e793f360795b8, type: 3}
      propertyPath: m_LocalEulerAnglesHint.x
      value: 0
      objectReference: {fileID: 0}
    - target: {fileID: 8772025710139090059, guid: fed24d2f08b0f6a48b1e793f360795b8, type: 3}
      propertyPath: m_LocalEulerAnglesHint.y
      value: 0
      objectReference: {fileID: 0}
    - target: {fileID: 8772025710139090059, guid: fed24d2f08b0f6a48b1e793f360795b8, type: 3}
      propertyPath: m_LocalEulerAnglesHint.z
      value: 0
      objectReference: {fileID: 0}
    - target: {fileID: 8772025710139090069, guid: fed24d2f08b0f6a48b1e793f360795b8, type: 3}
      propertyPath: m_Size.x
      value: 0.7118256
      objectReference: {fileID: 0}
    - target: {fileID: 8772025710139090069, guid: fed24d2f08b0f6a48b1e793f360795b8, type: 3}
      propertyPath: m_Size.y
      value: 0.941752
      objectReference: {fileID: 0}
    - target: {fileID: 8772025710139090069, guid: fed24d2f08b0f6a48b1e793f360795b8, type: 3}
      propertyPath: m_Offset.x
      value: -0.070510745
      objectReference: {fileID: 0}
    - target: {fileID: 8772025710139090069, guid: fed24d2f08b0f6a48b1e793f360795b8, type: 3}
      propertyPath: m_Offset.y
      value: -0.004598528
      objectReference: {fileID: 0}
    - target: {fileID: 9110386980792710066, guid: fed24d2f08b0f6a48b1e793f360795b8, type: 3}
      propertyPath: m_Sprite
      value: 
      objectReference: {fileID: -7861271801161266825, guid: a3f10d9dfe11c7c43bd4662b211ccbec, type: 3}
    m_RemovedComponents: []
  m_SourcePrefab: {fileID: 100100000, guid: fed24d2f08b0f6a48b1e793f360795b8, type: 3}
