%YAML 1.1
%TAG !u! tag:unity3d.com,2011:
--- !u!74 &7400000
AnimationClip:
  m_ObjectHideFlags: 0
  m_CorrespondingSourceObject: {fileID: 0}
  m_PrefabInstance: {fileID: 0}
  m_PrefabAsset: {fileID: 0}
  m_Name: soldier_melee_animation
  serializedVersion: 6
  m_Legacy: 0
  m_Compressed: 0
  m_UseHighQualityCurve: 1
  m_RotationCurves: []
  m_CompressedRotationCurves: []
  m_EulerCurves: []
  m_PositionCurves: []
  m_ScaleCurves: []
  m_FloatCurves: []
  m_PPtrCurves:
  - curve:
    - time: 0
      value: {fileID: -2047260162, guid: c1287cf3b16dc981e9a0256091a393d5, type: 3}
    - time: 0.083333336
      value: {fileID: -1975560323, guid: c1287cf3b16dc981e9a0256091a393d5, type: 3}
    - time: 0.16666667
      value: {fileID: -1377782385, guid: c1287cf3b16dc981e9a0256091a393d5, type: 3}
    - time: 0.25
      value: {fileID: -1781450413, guid: c1287cf3b16dc981e9a0256091a393d5, type: 3}
    - time: 0.33333334
      value: {fileID: -1653810770, guid: c1287cf3b16dc981e9a0256091a393d5, type: 3}
    - time: 0.41666666
      value: {fileID: 1140793721, guid: c1287cf3b16dc981e9a0256091a393d5, type: 3}
    - time: 0.5
      value: {fileID: 1900602134, guid: c1287cf3b16dc981e9a0256091a393d5, type: 3}
    - time: 0.5833333
      value: {fileID: -1759573615, guid: c1287cf3b16dc981e9a0256091a393d5, type: 3}
    attribute: m_Sprite
    path: 
    classID: 212
    script: {fileID: 0}
  - curve:
    - time: 0
      value: {fileID: 1193042463, guid: 74723f8db9e7989c28c6a460040569bb, type: 3}
    - time: 0.083333336
      value: {fileID: -283319979, guid: 74723f8db9e7989c28c6a460040569bb, type: 3}
    - time: 0.16666667
      value: {fileID: 1496445441, guid: 74723f8db9e7989c28c6a460040569bb, type: 3}
    - time: 0.25
      value: {fileID: 463428780, guid: 74723f8db9e7989c28c6a460040569bb, type: 3}
    - time: 0.33333334
      value: {fileID: 665316224, guid: 74723f8db9e7989c28c6a460040569bb, type: 3}
    - time: 0.41666666
      value: {fileID: -1497522702, guid: 74723f8db9e7989c28c6a460040569bb, type: 3}
    - time: 0.5
      value: {fileID: 1376338159, guid: 74723f8db9e7989c28c6a460040569bb, type: 3}
    - time: 0.5833333
      value: {fileID: 2034009538, guid: 74723f8db9e7989c28c6a460040569bb, type: 3}
    attribute: m_Sprite
    path: ArmorMouth
    classID: 212
    script: {fileID: 0}
  - curve:
    - time: 0
      value: {fileID: -435597798, guid: f5305be61ec66e781a178f5a708d8b04, type: 3}
    - time: 0.083333336
      value: {fileID: -52386392, guid: f5305be61ec66e781a178f5a708d8b04, type: 3}
    - time: 0.16666667
      value: {fileID: 2113752128, guid: f5305be61ec66e781a178f5a708d8b04, type: 3}
    - time: 0.25
      value: {fileID: 613469185, guid: f5305be61ec66e781a178f5a708d8b04, type: 3}
    - time: 0.33333334
      value: {fileID: 1474596410, guid: f5305be61ec66e781a178f5a708d8b04, type: 3}
    - time: 0.41666666
      value: {fileID: -1399298215, guid: f5305be61ec66e781a178f5a708d8b04, type: 3}
    - time: 0.5
      value: {fileID: -2096808778, guid: f5305be61ec66e781a178f5a708d8b04, type: 3}
    - time: 0.5833333
      value: {fileID: 844662679, guid: f5305be61ec66e781a178f5a708d8b04, type: 3}
    attribute: m_Sprite
    path: ArmorHead
    classID: 212
    script: {fileID: 0}
  - curve:
    - time: 0
      value: {fileID: 1772224507, guid: eaf1a1a2c06a128508ef1059256f2dbb, type: 3}
    - time: 0.083333336
      value: {fileID: 1701442928, guid: eaf1a1a2c06a128508ef1059256f2dbb, type: 3}
    - time: 0.16666667
      value: {fileID: -1578800882, guid: eaf1a1a2c06a128508ef1059256f2dbb, type: 3}
    - time: 0.25
      value: {fileID: -2097249471, guid: eaf1a1a2c06a128508ef1059256f2dbb, type: 3}
    - time: 0.33333334
      value: {fileID: 283513534, guid: eaf1a1a2c06a128508ef1059256f2dbb, type: 3}
    - time: 0.41666666
      value: {fileID: -136244992, guid: eaf1a1a2c06a128508ef1059256f2dbb, type: 3}
    - time: 0.5
      value: {fileID: -684004356, guid: eaf1a1a2c06a128508ef1059256f2dbb, type: 3}
    - time: 0.5833333
      value: {fileID: -564855377, guid: eaf1a1a2c06a128508ef1059256f2dbb, type: 3}
    attribute: m_Sprite
    path: ArmorUpperBody
    classID: 212
    script: {fileID: 0}
  - curve:
    - time: 0
      value: {fileID: -577207194, guid: 4b481d68be174e23faf73f4569ded02d, type: 3}
    - time: 0.083333336
      value: {fileID: 1404214609, guid: 4b481d68be174e23faf73f4569ded02d, type: 3}
    - time: 0.16666667
      value: {fileID: -320617660, guid: 4b481d68be174e23faf73f4569ded02d, type: 3}
    - time: 0.25
      value: {fileID: 1313120049, guid: 4b481d68be174e23faf73f4569ded02d, type: 3}
    - time: 0.33333334
      value: {fileID: -2059788261, guid: 4b481d68be174e23faf73f4569ded02d, type: 3}
    - time: 0.41666666
      value: {fileID: 1365663134, guid: 4b481d68be174e23faf73f4569ded02d, type: 3}
    - time: 0.5
      value: {fileID: 1356706951, guid: 4b481d68be174e23faf73f4569ded02d, type: 3}
    - time: 0.5833333
      value: {fileID: -910841311, guid: 4b481d68be174e23faf73f4569ded02d, type: 3}
    attribute: m_Sprite
    path: ArmorLowerBody
    classID: 212
    script: {fileID: 0}
  - curve:
    - time: 0
      value: {fileID: -2081217229, guid: a619e1af41551e876be0c9d259f41842, type: 3}
    - time: 0.083333336
      value: {fileID: 504662453, guid: a619e1af41551e876be0c9d259f41842, type: 3}
    - time: 0.16666667
      value: {fileID: -1519019934, guid: a619e1af41551e876be0c9d259f41842, type: 3}
    - time: 0.25
      value: {fileID: -303557026, guid: a619e1af41551e876be0c9d259f41842, type: 3}
    - time: 0.33333334
      value: {fileID: -1184459985, guid: a619e1af41551e876be0c9d259f41842, type: 3}
    - time: 0.41666666
      value: {fileID: -206519422, guid: a619e1af41551e876be0c9d259f41842, type: 3}
    - time: 0.5
      value: {fileID: 625960816, guid: a619e1af41551e876be0c9d259f41842, type: 3}
    - time: 0.5833333
      value: {fileID: -269734204, guid: a619e1af41551e876be0c9d259f41842, type: 3}
    attribute: m_Sprite
    path: ArmorTail
    classID: 212
    script: {fileID: 0}
  m_SampleRate: 12
  m_WrapMode: 0
  m_Bounds:
    m_Center: {x: 0, y: 0, z: 0}
    m_Extent: {x: 0, y: 0, z: 0}
  m_ClipBindingConstant:
    genericBindings:
    - serializedVersion: 2
      path: 0
      attribute: 0
      script: {fileID: 0}
      typeID: 212
      customType: 23
      isPPtrCurve: 1
    - serializedVersion: 2
      path: 2776321689
      attribute: 0
      script: {fileID: 0}
      typeID: 212
      customType: 23
      isPPtrCurve: 1
    - serializedVersion: 2
      path: 2009149628
      attribute: 0
      script: {fileID: 0}
      typeID: 212
      customType: 23
      isPPtrCurve: 1
    - serializedVersion: 2
      path: 2847993702
      attribute: 0
      script: {fileID: 0}
      typeID: 212
      customType: 23
      isPPtrCurve: 1
    - serializedVersion: 2
      path: 3382642245
      attribute: 0
      script: {fileID: 0}
      typeID: 212
      customType: 23
      isPPtrCurve: 1
    - serializedVersion: 2
      path: 2886038141
      attribute: 0
      script: {fileID: 0}
      typeID: 212
      customType: 23
      isPPtrCurve: 1
    pptrCurveMapping:
    - {fileID: -2047260162, guid: c1287cf3b16dc981e9a0256091a393d5, type: 3}
    - {fileID: -1975560323, guid: c1287cf3b16dc981e9a0256091a393d5, type: 3}
    - {fileID: -1377782385, guid: c1287cf3b16dc981e9a0256091a393d5, type: 3}
    - {fileID: -1781450413, guid: c1287cf3b16dc981e9a0256091a393d5, type: 3}
    - {fileID: -1653810770, guid: c1287cf3b16dc981e9a0256091a393d5, type: 3}
    - {fileID: 1140793721, guid: c1287cf3b16dc981e9a0256091a393d5, type: 3}
    - {fileID: 1900602134, guid: c1287cf3b16dc981e9a0256091a393d5, type: 3}
    - {fileID: -1759573615, guid: c1287cf3b16dc981e9a0256091a393d5, type: 3}
    - {fileID: 1193042463, guid: 74723f8db9e7989c28c6a460040569bb, type: 3}
    - {fileID: -283319979, guid: 74723f8db9e7989c28c6a460040569bb, type: 3}
    - {fileID: 1496445441, guid: 74723f8db9e7989c28c6a460040569bb, type: 3}
    - {fileID: 463428780, guid: 74723f8db9e7989c28c6a460040569bb, type: 3}
    - {fileID: 665316224, guid: 74723f8db9e7989c28c6a460040569bb, type: 3}
    - {fileID: -1497522702, guid: 74723f8db9e7989c28c6a460040569bb, type: 3}
    - {fileID: 1376338159, guid: 74723f8db9e7989c28c6a460040569bb, type: 3}
    - {fileID: 2034009538, guid: 74723f8db9e7989c28c6a460040569bb, type: 3}
    - {fileID: -435597798, guid: f5305be61ec66e781a178f5a708d8b04, type: 3}
    - {fileID: -52386392, guid: f5305be61ec66e781a178f5a708d8b04, type: 3}
    - {fileID: 2113752128, guid: f5305be61ec66e781a178f5a708d8b04, type: 3}
    - {fileID: 613469185, guid: f5305be61ec66e781a178f5a708d8b04, type: 3}
    - {fileID: 1474596410, guid: f5305be61ec66e781a178f5a708d8b04, type: 3}
    - {fileID: -1399298215, guid: f5305be61ec66e781a178f5a708d8b04, type: 3}
    - {fileID: -2096808778, guid: f5305be61ec66e781a178f5a708d8b04, type: 3}
    - {fileID: 844662679, guid: f5305be61ec66e781a178f5a708d8b04, type: 3}
    - {fileID: 1772224507, guid: eaf1a1a2c06a128508ef1059256f2dbb, type: 3}
    - {fileID: 1701442928, guid: eaf1a1a2c06a128508ef1059256f2dbb, type: 3}
    - {fileID: -1578800882, guid: eaf1a1a2c06a128508ef1059256f2dbb, type: 3}
    - {fileID: -2097249471, guid: eaf1a1a2c06a128508ef1059256f2dbb, type: 3}
    - {fileID: 283513534, guid: eaf1a1a2c06a128508ef1059256f2dbb, type: 3}
    - {fileID: -136244992, guid: eaf1a1a2c06a128508ef1059256f2dbb, type: 3}
    - {fileID: -684004356, guid: eaf1a1a2c06a128508ef1059256f2dbb, type: 3}
    - {fileID: -564855377, guid: eaf1a1a2c06a128508ef1059256f2dbb, type: 3}
    - {fileID: -577207194, guid: 4b481d68be174e23faf73f4569ded02d, type: 3}
    - {fileID: 1404214609, guid: 4b481d68be174e23faf73f4569ded02d, type: 3}
    - {fileID: -320617660, guid: 4b481d68be174e23faf73f4569ded02d, type: 3}
    - {fileID: 1313120049, guid: 4b481d68be174e23faf73f4569ded02d, type: 3}
    - {fileID: -2059788261, guid: 4b481d68be174e23faf73f4569ded02d, type: 3}
    - {fileID: 1365663134, guid: 4b481d68be174e23faf73f4569ded02d, type: 3}
    - {fileID: 1356706951, guid: 4b481d68be174e23faf73f4569ded02d, type: 3}
    - {fileID: -910841311, guid: 4b481d68be174e23faf73f4569ded02d, type: 3}
    - {fileID: -2081217229, guid: a619e1af41551e876be0c9d259f41842, type: 3}
    - {fileID: 504662453, guid: a619e1af41551e876be0c9d259f41842, type: 3}
    - {fileID: -1519019934, guid: a619e1af41551e876be0c9d259f41842, type: 3}
    - {fileID: -303557026, guid: a619e1af41551e876be0c9d259f41842, type: 3}
    - {fileID: -1184459985, guid: a619e1af41551e876be0c9d259f41842, type: 3}
    - {fileID: -206519422, guid: a619e1af41551e876be0c9d259f41842, type: 3}
    - {fileID: 625960816, guid: a619e1af41551e876be0c9d259f41842, type: 3}
    - {fileID: -269734204, guid: a619e1af41551e876be0c9d259f41842, type: 3}
  m_AnimationClipSettings:
    serializedVersion: 2
    m_AdditiveReferencePoseClip: {fileID: 0}
    m_AdditiveReferencePoseTime: 0
    m_StartTime: 0
    m_StopTime: 0.6666666
    m_OrientationOffsetY: 0
    m_Level: 0
    m_CycleOffset: 0
    m_HasAdditiveReferencePose: 0
    m_LoopTime: 0
    m_LoopBlend: 0
    m_LoopBlendOrientation: 0
    m_LoopBlendPositionY: 0
    m_LoopBlendPositionXZ: 0
    m_KeepOriginalOrientation: 0
    m_KeepOriginalPositionY: 1
    m_KeepOriginalPositionXZ: 0
    m_HeightFromFeet: 0
    m_Mirror: 0
  m_EditorCurves: []
  m_EulerEditorCurves: []
  m_HasGenericRootTransform: 0
  m_HasMotionFloatCurves: 0
  m_Events: []
