%YAML 1.1
%TAG !u! tag:unity3d.com,2011:
--- !u!1001 &669786139556043821
PrefabInstance:
  m_ObjectHideFlags: 0
  serializedVersion: 2
  m_Modification:
    m_TransformParent: {fileID: 0}
    m_Modifications:
    - target: {fileID: 432607445116904437, guid: fed24d2f08b0f6a48b1e793f360795b8, type: 3}
      propertyPath: destructionStatesBody.Array.size
      value: 2
      objectReference: {fileID: 0}
    - target: {fileID: 432607445116904437, guid: fed24d2f08b0f6a48b1e793f360795b8, type: 3}
      propertyPath: destructionStatesShadow.Array.size
      value: 2
      objectReference: {fileID: 0}
    - target: {fileID: 432607445116904437, guid: fed24d2f08b0f6a48b1e793f360795b8, type: 3}
      propertyPath: destructionStatesBody.Array.data[0]
      value: 
      objectReference: {fileID: -118853634, guid: 4cd65ac37638db9aab39dfaeec1dc571, type: 3}
    - target: {fileID: 432607445116904437, guid: fed24d2f08b0f6a48b1e793f360795b8, type: 3}
      propertyPath: destructionStatesBody.Array.data[1]
      value: 
      objectReference: {fileID: -118853634, guid: 4cd65ac37638db9aab39dfaeec1dc571, type: 3}
    - target: {fileID: 432607445116904437, guid: fed24d2f08b0f6a48b1e793f360795b8, type: 3}
      propertyPath: destructionStatesHighlight.Array.size
      value: 2
      objectReference: {fileID: 0}
    - target: {fileID: 432607445116904437, guid: fed24d2f08b0f6a48b1e793f360795b8, type: 3}
      propertyPath: destructionStatesShadow.Array.data[0]
      value: 
      objectReference: {fileID: -688302245, guid: 4cd65ac37638db9aab39dfaeec1dc571, type: 3}
    - target: {fileID: 432607445116904437, guid: fed24d2f08b0f6a48b1e793f360795b8, type: 3}
      propertyPath: destructionStatesShadow.Array.data[1]
      value: 
      objectReference: {fileID: -688302245, guid: 4cd65ac37638db9aab39dfaeec1dc571, type: 3}
    - target: {fileID: 432607445116904437, guid: fed24d2f08b0f6a48b1e793f360795b8, type: 3}
      propertyPath: destructionStatesHighlight.Array.data[0]
      value: 
      objectReference: {fileID: -1360560517, guid: 4cd65ac37638db9aab39dfaeec1dc571, type: 3}
    - target: {fileID: 432607445116904437, guid: fed24d2f08b0f6a48b1e793f360795b8, type: 3}
      propertyPath: destructionStatesHighlight.Array.data[1]
      value: 
      objectReference: {fileID: -1360560517, guid: 4cd65ac37638db9aab39dfaeec1dc571, type: 3}
    - target: {fileID: 2082656072181694009, guid: fed24d2f08b0f6a48b1e793f360795b8, type: 3}
      propertyPath: m_IsActive
      value: 0
      objectReference: {fileID: 0}
    - target: {fileID: 6577898960399029253, guid: fed24d2f08b0f6a48b1e793f360795b8, type: 3}
      propertyPath: m_IsActive
      value: 0
      objectReference: {fileID: 0}
    - target: {fileID: 7356900322027396071, guid: fed24d2f08b0f6a48b1e793f360795b8, type: 3}
      propertyPath: m_Sprite
      value: 
      objectReference: {fileID: -688302245, guid: 4cd65ac37638db9aab39dfaeec1dc571, type: 3}
    - target: {fileID: 7442463784555041026, guid: fed24d2f08b0f6a48b1e793f360795b8, type: 3}
      propertyPath: m_Sprite
      value: 
      objectReference: {fileID: -118853634, guid: 4cd65ac37638db9aab39dfaeec1dc571, type: 3}
    - target: {fileID: 8772025710139090057, guid: fed24d2f08b0f6a48b1e793f360795b8, type: 3}
      propertyPath: m_Name
      value: AsnorSoldierDeathMeleeReplacementLeft1
      objectReference: {fileID: 0}
    - target: {fileID: 8772025710139090059, guid: fed24d2f08b0f6a48b1e793f360795b8, type: 3}
      propertyPath: m_RootOrder
      value: 0
      objectReference: {fileID: 0}
    - target: {fileID: 8772025710139090059, guid: fed24d2f08b0f6a48b1e793f360795b8, type: 3}
      propertyPath: m_LocalScale.x
      value: 2
      objectReference: {fileID: 0}
    - target: {fileID: 8772025710139090059, guid: fed24d2f08b0f6a48b1e793f360795b8, type: 3}
      propertyPath: m_LocalScale.y
      value: 2
      objectReference: {fileID: 0}
    - target: {fileID: 8772025710139090059, guid: fed24d2f08b0f6a48b1e793f360795b8, type: 3}
      propertyPath: m_LocalScale.z
      value: 2
      objectReference: {fileID: 0}
    - target: {fileID: 8772025710139090059, guid: fed24d2f08b0f6a48b1e793f360795b8, type: 3}
      propertyPath: m_LocalPosition.x
      value: 0
      objectReference: {fileID: 0}
    - target: {fileID: 8772025710139090059, guid: fed24d2f08b0f6a48b1e793f360795b8, type: 3}
      propertyPath: m_LocalPosition.y
      value: 0
      objectReference: {fileID: 0}
    - target: {fileID: 8772025710139090059, guid: fed24d2f08b0f6a48b1e793f360795b8, type: 3}
      propertyPath: m_LocalPosition.z
      value: 0
      objectReference: {fileID: 0}
    - target: {fileID: 8772025710139090059, guid: fed24d2f08b0f6a48b1e793f360795b8, type: 3}
      propertyPath: m_LocalRotation.w
      value: 1
      objectReference: {fileID: 0}
    - target: {fileID: 8772025710139090059, guid: fed24d2f08b0f6a48b1e793f360795b8, type: 3}
      propertyPath: m_LocalRotation.x
      value: 0
      objectReference: {fileID: 0}
    - target: {fileID: 8772025710139090059, guid: fed24d2f08b0f6a48b1e793f360795b8, type: 3}
      propertyPath: m_LocalRotation.y
      value: 0
      objectReference: {fileID: 0}
    - target: {fileID: 8772025710139090059, guid: fed24d2f08b0f6a48b1e793f360795b8, type: 3}
      propertyPath: m_LocalRotation.z
      value: 0
      objectReference: {fileID: 0}
    - target: {fileID: 8772025710139090059, guid: fed24d2f08b0f6a48b1e793f360795b8, type: 3}
      propertyPath: m_LocalEulerAnglesHint.x
      value: 0
      objectReference: {fileID: 0}
    - target: {fileID: 8772025710139090059, guid: fed24d2f08b0f6a48b1e793f360795b8, type: 3}
      propertyPath: m_LocalEulerAnglesHint.y
      value: 0
      objectReference: {fileID: 0}
    - target: {fileID: 8772025710139090059, guid: fed24d2f08b0f6a48b1e793f360795b8, type: 3}
      propertyPath: m_LocalEulerAnglesHint.z
      value: 0
      objectReference: {fileID: 0}
    - target: {fileID: 8772025710139090069, guid: fed24d2f08b0f6a48b1e793f360795b8, type: 3}
      propertyPath: m_Size.x
      value: 0.38123298
      objectReference: {fileID: 0}
    - target: {fileID: 8772025710139090069, guid: fed24d2f08b0f6a48b1e793f360795b8, type: 3}
      propertyPath: m_Size.y
      value: 0.17407389
      objectReference: {fileID: 0}
    - target: {fileID: 8772025710139090069, guid: fed24d2f08b0f6a48b1e793f360795b8, type: 3}
      propertyPath: m_Offset.x
      value: -0.015044183
      objectReference: {fileID: 0}
    - target: {fileID: 8772025710139090069, guid: fed24d2f08b0f6a48b1e793f360795b8, type: 3}
      propertyPath: m_Offset.y
      value: 0.038839467
      objectReference: {fileID: 0}
    - target: {fileID: 9110386980792710066, guid: fed24d2f08b0f6a48b1e793f360795b8, type: 3}
      propertyPath: m_Sprite
      value: 
      objectReference: {fileID: -1360560517, guid: 4cd65ac37638db9aab39dfaeec1dc571, type: 3}
    m_RemovedComponents: []
  m_SourcePrefab: {fileID: 100100000, guid: fed24d2f08b0f6a48b1e793f360795b8, type: 3}
