%YAML 1.1
%TAG !u! tag:unity3d.com,2011:
--- !u!114 &11400000
MonoBehaviour:
  m_ObjectHideFlags: 0
  m_CorrespondingSourceObject: {fileID: 0}
  m_PrefabInstance: {fileID: 0}
  m_PrefabAsset: {fileID: 0}
  m_GameObject: {fileID: 0}
  m_Enabled: 1
  m_EditorHideFlags: 0
  m_Script: {fileID: 11500000, guid: 068cd9383b0d1c74493611c67f5a2134, type: 3}
  m_Name: PlayerProperties
  m_EditorClassIdentifier: 
  assaultRifleHandsPrefab: {fileID: 1770827362873941945, guid: 5246d1fb1082c50d1a40220b93f5179a, type: 3}
  shotGunHandsPrefab: {fileID: 0}
  sniperRifleHandsPrefab: {fileID: 0}
  movementSpeed: 4
  initAmmo: 40
  maxAmmo: 50
  meleeRange: 1.5
  maxShields: 125
  pullSpeed: 200
  throwForce: 2500
  pulledObjectDistance: 2
  maxEnergy: 120
  energyRecoveryDelay: 1.5
  energyRecoveryPerSecond: 12
  meleeAttackRange: 3
  meleeAttackTargetSpeed: 2000
  meleeAttackDuration: 0.4
  meleeAttackDrag: 50
  meleeAttackRestoreVelocity: 1
  gunEmptySound:
    Guid:
      Data1: -1054637714
      Data2: 1140866358
      Data3: 290033825
      Data4: -1606404029
    Path: event:/PlayerActions/GunEmpty
  gunEmptySoundDuration: 0.31
  noPullEnergySound:
    Guid:
      Data1: 1466601554
      Data2: 1204569991
      Data3: -2326896
      Data4: -1544090980
    Path: event:/PlayerActions/NoPullEnergy
  noPullEnergySoundDuration: 0.35
